[
    {
        "id": "67b8ea36.eea7f4",
        "type": "tab",
        "label": "0019 Sensor de audio",
        "disabled": false,
        "info": ""
    },
    {
        "id": "9b7a47a4.c1f788",
        "type": "mqtt in",
        "z": "67b8ea36.eea7f4",
        "name": "",
        "topic": "esp32/noise",
        "qos": "2",
        "datatype": "auto",
        "broker": "c35e5d10.9ba1c",
        "x": 140,
        "y": 140,
        "wires": [
            [
                "18ad6268.32b00e"
            ]
        ]
    },
    {
        "id": "18ad6268.32b00e",
        "type": "json",
        "z": "67b8ea36.eea7f4",
        "name": "",
        "property": "payload",
        "action": "obj",
        "pretty": false,
        "x": 340,
        "y": 140,
        "wires": [
            [
                "a9d45af5.beacb8"
            ]
        ]
    },
    {
        "id": "a9d45af5.beacb8",
        "type": "ui_text",
        "z": "67b8ea36.eea7f4",
        "group": "9aa6d66b.bd6658",
        "order": 0,
        "width": 0,
        "height": 0,
        "name": "",
        "label": "Nivel de ruido",
        "format": "{{msg.payload}}",
        "layout": "row-spread",
        "x": 600,
        "y": 140,
        "wires": []
    },
    {
        "id": "c35e5d10.9ba1c",
        "type": "mqtt-broker",
        "z": "",
        "name": "",
        "broker": "localhost",
        "port": "1883",
        "clientid": "hugo",
        "usetls": false,
        "compatmode": true,
        "keepalive": "60",
        "cleansession": true,
        "birthTopic": "",
        "birthQos": "0",
        "birthPayload": "",
        "closeTopic": "",
        "closeQos": "0",
        "closePayload": "",
        "willTopic": "",
        "willQos": "0",
        "willPayload": ""
    },
    {
        "id": "9aa6d66b.bd6658",
        "type": "ui_group",
        "z": "",
        "name": "Lectura de Ruido",
        "tab": "82f699aa.9b3f58",
        "disp": true,
        "width": "6",
        "collapse": false
    },
    {
        "id": "82f699aa.9b3f58",
        "type": "ui_tab",
        "z": "",
        "name": "Sensor de Audio",
        "icon": "dashboard",
        "order": 22,
        "disabled": false,
        "hidden": false
    }
]