[
    {
        "id": "bf150ea7.c7806",
        "type": "tab",
        "label": "0038 RFID NodeMCU",
        "disabled": false,
        "info": ""
    },
    {
        "id": "d49bec46.6794f",
        "type": "mqtt in",
        "z": "bf150ea7.c7806",
        "name": "",
        "topic": "codigoiot/rfid",
        "qos": "2",
        "datatype": "auto",
        "broker": "4444b057.6040d",
        "x": 240,
        "y": 140,
        "wires": [
            [
                "dd11f204.423ea"
            ]
        ]
    },
    {
        "id": "dd11f204.423ea",
        "type": "ui_text",
        "z": "bf150ea7.c7806",
        "group": "aae8bfcb.4268",
        "order": 0,
        "width": 0,
        "height": 0,
        "name": "",
        "label": "text",
        "format": "{{msg.payload}}",
        "layout": "row-spread",
        "x": 400,
        "y": 140,
        "wires": []
    },
    {
        "id": "4444b057.6040d",
        "type": "mqtt-broker",
        "z": "",
        "name": "BrokerCodigoIoT",
        "broker": "localhost",
        "port": "1883",
        "clientid": "miCliente",
        "usetls": false,
        "compatmode": true,
        "keepalive": "60",
        "cleansession": true,
        "birthTopic": "",
        "birthQos": "0",
        "birthPayload": "",
        "closeTopic": "",
        "closeQos": "0",
        "closePayload": "",
        "willTopic": "",
        "willQos": "0",
        "willPayload": ""
    },
    {
        "id": "aae8bfcb.4268",
        "type": "ui_group",
        "z": "",
        "name": "Lectura RFID",
        "tab": "5678ea3e.b770c4",
        "disp": true,
        "width": "6",
        "collapse": false
    },
    {
        "id": "5678ea3e.b770c4",
        "type": "ui_tab",
        "z": "",
        "name": "Lectura RFID NodeMCU",
        "icon": "dashboard",
        "disabled": false,
        "hidden": false
    }
]