[
    {
        "id": "b9164dd9.94355",
        "type": "tab",
        "label": "Sensor humedad de tierra Photon",
        "disabled": false,
        "info": ""
    },
    {
        "id": "4da791bf.675eb",
        "type": "particle-var",
        "z": "b9164dd9.94355",
        "pcloud": "",
        "devid": "nombreDePhoton",
        "getvar": "soil",
        "productIdOrSlug": "",
        "repeat": "1",
        "once": true,
        "x": 220,
        "y": 200,
        "wires": [
            [
                "747ced88.0e22b4"
            ]
        ]
    },
    {
        "id": "747ced88.0e22b4",
        "type": "ui_text",
        "z": "b9164dd9.94355",
        "group": "b0f3c531.cd48b8",
        "order": 0,
        "width": 0,
        "height": 0,
        "name": "",
        "label": "Valor de humedad",
        "format": "{{msg.payload}}",
        "layout": "row-spread",
        "x": 490,
        "y": 200,
        "wires": []
    },
    {
        "id": "b0f3c531.cd48b8",
        "type": "ui_group",
        "z": "",
        "name": "Sensor De Humedad",
        "tab": "af2b5671.cd7f58",
        "disp": true,
        "width": "6",
        "collapse": false
    },
    {
        "id": "af2b5671.cd7f58",
        "type": "ui_tab",
        "z": "",
        "name": "Monitorear Variable Particle",
        "icon": "dashboard",
        "order": 3,
        "disabled": false,
        "hidden": false
    }
]