[
    {
        "id": "2a0882ef.4398ee",
        "type": "tab",
        "label": "Sección11Lección4",
        "disabled": false,
        "info": ""
    },
    {
        "id": "f322ce96.f67a3",
        "type": "particle-SSE",
        "z": "2a0882ef.4398ee",
        "pcloud": "",
        "subscribetype": "devid",
        "devprodslug": "nombreDePhoton",
        "devid": "",
        "evtname": "lectura_rfid",
        "strict": 0,
        "x": 210,
        "y": 180,
        "wires": [
            [
                "8e6b0f82.6ffe2"
            ]
        ]
    },
    {
        "id": "8e6b0f82.6ffe2",
        "type": "function",
        "z": "2a0882ef.4398ee",
        "name": "Búsqueda",
        "func": "/*\n* Establecer uid como una variable global\n* para que la puedan utilizar otros nodos.\n*/\nglobal.set(\"uid\",msg.payload.data);\n/*\n* Modificar el topic de msg para que sea una\n* búsqueda válida del uid en sintaxis mySQL.\n*/\nmsg.topic=\"SELECT uid FROM rfid WHERE uid=\"+msg.payload.data+\";\";\n//Enviar el mensaje al siguiente nodo.\nreturn msg;",
        "outputs": 1,
        "noerr": 0,
        "x": 260,
        "y": 260,
        "wires": [
            [
                "4ce78064.10186"
            ]
        ]
    },
    {
        "id": "4ce78064.10186",
        "type": "mysql",
        "z": "2a0882ef.4398ee",
        "mydb": "2ac396fa.06729a",
        "name": "Base de datos",
        "x": 340,
        "y": 340,
        "wires": [
            [
                "d5f6782f.1f36b8"
            ]
        ]
    },
    {
        "id": "d5f6782f.1f36b8",
        "type": "switch",
        "z": "2a0882ef.4398ee",
        "name": "",
        "property": "payload.length",
        "propertyType": "msg",
        "rules": [
            {
                "t": "eq",
                "v": "0",
                "vt": "num"
            },
            {
                "t": "gt",
                "v": "0",
                "vt": "num"
            }
        ],
        "checkall": "true",
        "repair": false,
        "outputs": 2,
        "x": 390,
        "y": 420,
        "wires": [
            [
                "d724ee9c.938fe"
            ],
            [
                "a50efd50.13c64"
            ]
        ]
    },
    {
        "id": "d724ee9c.938fe",
        "type": "function",
        "z": "2a0882ef.4398ee",
        "name": "Registro",
        "func": "//Crear una nuevo objeto fecha\nvar fecha= new Date();\n/*\n*Obtener la fecha y pasarla a formato año-mes-día\n*/\nfecha=fecha.getFullYear()+\"-\"+(fecha.getMonth()+1)+\"-\"+fecha.getDate()+\" \"+fecha.getHours()+\":\"+fecha.getMinutes();\n/*\n* Asignar a msg.topic un comando MySQL que \n* registre el uid y la fecha en la base de datos.\n*/\nmsg.topic=\"INSERT INTO rfid (uid,registro) VALUES ('\"+global.get(\"uid\")+\"','\"+fecha+\"');\";\nreturn msg;",
        "outputs": 1,
        "noerr": 0,
        "x": 620,
        "y": 260,
        "wires": [
            [
                "4ce78064.10186"
            ]
        ]
    },
    {
        "id": "a50efd50.13c64",
        "type": "function",
        "z": "2a0882ef.4398ee",
        "name": "Busqueda",
        "func": "\nmsg.topic= \"SELECT registro FROM rfid WHERE uid='\"+global.get(\"uid\")+\"';\";\nreturn msg;",
        "outputs": 1,
        "noerr": 0,
        "x": 460,
        "y": 500,
        "wires": [
            [
                "47667e6b.51428"
            ]
        ]
    },
    {
        "id": "47667e6b.51428",
        "type": "mysql",
        "z": "2a0882ef.4398ee",
        "mydb": "2ac396fa.06729a",
        "name": "Base de datos",
        "x": 540,
        "y": 580,
        "wires": [
            [
                "6c183ca.4c220c4"
            ]
        ]
    },
    {
        "id": "6c183ca.4c220c4",
        "type": "debug",
        "z": "2a0882ef.4398ee",
        "name": "",
        "active": true,
        "tosidebar": true,
        "console": false,
        "tostatus": false,
        "complete": "payload[0].registro",
        "targetType": "msg",
        "x": 810,
        "y": 500,
        "wires": []
    },
    {
        "id": "2ac396fa.06729a",
        "type": "MySQLdatabase",
        "z": "",
        "host": "142.44.154.22",
        "port": "3306",
        "db": "rfid",
        "tz": ""
    }
]