[
    {
        "id": "aeb9cfb8.afdbf",
        "type": "tab",
        "label": "Sección6Leccion3",
        "disabled": false,
        "info": ""
    },
    {
        "id": "14f23f46.916b61",
        "type": "inject",
        "z": "aeb9cfb8.afdbf",
        "name": "",
        "topic": "",
        "payload": "",
        "payloadType": "date",
        "repeat": "1",
        "crontab": "",
        "once": false,
        "onceDelay": 0.1,
        "x": 150,
        "y": 160,
        "wires": [
            [
                "68e733f9.599cec"
            ]
        ]
    },
    {
        "id": "807404cd.0e39a8",
        "type": "debug",
        "z": "aeb9cfb8.afdbf",
        "name": "",
        "active": false,
        "tosidebar": true,
        "console": false,
        "tostatus": false,
        "complete": "false",
        "x": 590,
        "y": 220,
        "wires": []
    },
    {
        "id": "68e733f9.599cec",
        "type": "function",
        "z": "aeb9cfb8.afdbf",
        "name": "Convertir Fecha",
        "func": "// Lo que está después de “//” son comentarios\n// Crea un objeto Date a partir del payload enviado por timestamp\nvar date = new Date(msg.payload);\n// Cambia el payload para que sea una fecha con formato\nmsg.payload = date.toString();\n// Regresa el mensaje para que se envíe al sigueinte nodo\nreturn msg;",
        "outputs": 1,
        "noerr": 0,
        "x": 360,
        "y": 160,
        "wires": [
            [
                "fa1a6825.183c18",
                "807404cd.0e39a8"
            ]
        ]
    },
    {
        "id": "fa1a6825.183c18",
        "type": "ui_text",
        "z": "aeb9cfb8.afdbf",
        "group": "363e8220.61549e",
        "order": 0,
        "width": 0,
        "height": 0,
        "name": "",
        "label": "Hora actual",
        "format": "{{msg.payload}}",
        "layout": "row-spread",
        "x": 590,
        "y": 160,
        "wires": []
    },
    {
        "id": "363e8220.61549e",
        "type": "ui_group",
        "z": "",
        "name": "Bloque de hora",
        "tab": "dbcadbca.198698",
        "order": 1,
        "disp": true,
        "width": "6",
        "collapse": false
    },
    {
        "id": "dbcadbca.198698",
        "type": "ui_tab",
        "z": "",
        "name": "Hora Formateada",
        "icon": "dashboard",
        "order": 2,
        "disabled": false,
        "hidden": false
    }
]