[
    {
        "id": "38634d96.662562",
        "type": "tab",
        "label": "Sección14Leccion2",
        "disabled": false,
        "info": ""
    },
    {
        "id": "8d63ed3.8057f1",
        "type": "ui_switch",
        "z": "38634d96.662562",
        "name": "",
        "label": "switch",
        "tooltip": "",
        "group": "e1edf64a.cb47c8",
        "order": 0,
        "width": 0,
        "height": 0,
        "passthru": true,
        "decouple": "false",
        "topic": "",
        "style": "",
        "onvalue": "on",
        "onvalueType": "str",
        "onicon": "",
        "oncolor": "",
        "offvalue": "off",
        "offvalueType": "str",
        "officon": "",
        "offcolor": "",
        "x": 240,
        "y": 260,
        "wires": [
            [
                "e9b57c1a.3362b"
            ]
        ]
    },
    {
        "id": "e9b57c1a.3362b",
        "type": "particle-func",
        "z": "38634d96.662562",
        "pcloud": "",
        "devid": "nombreDePhoton",
        "fname": "rele",
        "param": "",
        "productIdOrSlug": "",
        "repeat": 0,
        "once": false,
        "x": 540,
        "y": 260,
        "wires": [
            []
        ]
    },
    {
        "id": "e1edf64a.cb47c8",
        "type": "ui_group",
        "z": "",
        "name": "Switch Rele",
        "tab": "4ef3e2b9.f165fc",
        "disp": true,
        "width": "6",
        "collapse": false
    },
    {
        "id": "4ef3e2b9.f165fc",
        "type": "ui_tab",
        "z": "",
        "name": "Control Rele",
        "icon": "dashboard",
        "order": 7,
        "disabled": false,
        "hidden": false
    }
]