[
    {
        "id": "81bb8c77.5953f",
        "type": "tab",
        "label": "0036 pir nodemcu",
        "disabled": false,
        "info": ""
    },
    {
        "id": "d06864d0.1bd2f8",
        "type": "mqtt in",
        "z": "81bb8c77.5953f",
        "name": "",
        "topic": "codigoiot/pir",
        "qos": "2",
        "datatype": "auto",
        "broker": "4444b057.6040d",
        "x": 240,
        "y": 160,
        "wires": [
            [
                "b07ceb53.06cf78",
                "ceab200d.287d3"
            ]
        ]
    },
    {
        "id": "b07ceb53.06cf78",
        "type": "ui_text",
        "z": "81bb8c77.5953f",
        "group": "bce9d57f.0832f8",
        "order": 0,
        "width": 0,
        "height": 0,
        "name": "",
        "label": "Presencia",
        "format": "{{msg.payload}}",
        "layout": "row-spread",
        "x": 520,
        "y": 160,
        "wires": []
    },
    {
        "id": "ceab200d.287d3",
        "type": "ui_audio",
        "z": "81bb8c77.5953f",
        "name": "",
        "group": "bce9d57f.0832f8",
        "voice": "es-MX",
        "always": "",
        "x": 520,
        "y": 220,
        "wires": []
    },
    {
        "id": "6c17c29a.b44edc",
        "type": "inject",
        "z": "81bb8c77.5953f",
        "name": "",
        "topic": "detectado",
        "payload": "detectado",
        "payloadType": "str",
        "repeat": "",
        "crontab": "",
        "once": false,
        "onceDelay": 0.1,
        "x": 270,
        "y": 260,
        "wires": [
            [
                "ceab200d.287d3",
                "b07ceb53.06cf78"
            ]
        ]
    },
    {
        "id": "4444b057.6040d",
        "type": "mqtt-broker",
        "z": "",
        "name": "BrokerCodigoIoT",
        "broker": "localhost",
        "port": "1883",
        "clientid": "miCliente",
        "usetls": false,
        "compatmode": true,
        "keepalive": "60",
        "cleansession": true,
        "birthTopic": "",
        "birthQos": "0",
        "birthPayload": "",
        "closeTopic": "",
        "closeQos": "0",
        "closePayload": "",
        "willTopic": "",
        "willQos": "0",
        "willPayload": ""
    },
    {
        "id": "bce9d57f.0832f8",
        "type": "ui_group",
        "z": "",
        "name": "Sensor PIR",
        "tab": "4e398c67.4daec4",
        "disp": true,
        "width": "6",
        "collapse": false
    },
    {
        "id": "4e398c67.4daec4",
        "type": "ui_tab",
        "z": "",
        "name": "Sensor PIR NodeMCU",
        "icon": "dashboard",
        "disabled": false,
        "hidden": false
    }
]